<?xml version="1.0" standalone="no"?>
<!DOCTYPE svg PUBLIC "-//W3C//DTD SVG 1.1//EN" "http://www.w3.org/Graphics/SVG/1.1/DTD/svg11.dtd">
<svg xmlns="http://www.w3.org/2000/svg">
<metadata>Generated by Fontastic.me</metadata>
<defs>
<font id="untitled-font-1" horiz-adv-x="512">
<font-face font-family="untitled-font-1" units-per-em="512" ascent="480" descent="-32"/>
<missing-glyph horiz-adv-x="512" />

<glyph glyph-name="add" unicode="&#97;" d="M237 497c-33-3-58-10-84-22-74-36-124-103-137-185-2-16-2-52 0-68 6-40 22-79 46-110 24-33 54-57 91-75 21-10 45-17 69-21 16-2 52-2 69 0 24 4 47 11 69 21 51 25 90 64 115 115 10 22 17 46 21 70 2 16 2 52 0 68-4 25-11 48-21 69-25 52-64 91-115 116-22 10-46 17-69 20-11 2-46 3-54 2z m51-18c43-6 85-25 116-53 17-15 29-29 41-47 24-37 36-78 36-123 0-45-12-86-36-123-10-15-17-24-31-37-25-25-51-41-84-53-23-8-47-12-74-12-46 0-87 12-125 38-17 11-37 29-50 45-20 25-36 55-43 86-6 21-7 34-7 56 0 45 12 86 36 123 12 18 24 32 42 47 34 31 80 51 129 55 12 1 37 0 50-2z m-40-129l0-86-172 0 0-16 172 0 0-172 16 0 0 172 172 0 0 16-172 0 0 172-16 0z"/>
<glyph glyph-name="atachment" unicode="&#98;" d="M385 494c-19-3-40-12-53-22-7-6-82-80-202-198-52-53-55-56-61-72-13-35 0-74 32-94 13-9 26-13 43-12 18 0 31 3 45 13 9 6 187 184 190 190 3 5 3 8 0 13-4 8-13 11-21 7-2-1-45-42-95-93-97-97-94-94-108-98-34-8-66 24-57 58 3 14-2 9 126 136 66 65 121 119 124 121 9 8 19 14 32 18 9 2 31 2 40 0 23-7 42-23 52-43 6-13 7-19 7-35 0-10 0-15-1-20-3-9-9-22-15-29-2-3-47-47-98-98-149-148-148-146-156-151-45-30-102-25-141 12-40 39-45 103-11 147 2 4 45 48 96 98 99 99 93 93 92 103-1 5-7 11-12 11-10 2-3 8-107-95-86-87-95-96-101-106-11-16-18-32-22-52-3-14-3-42 0-56 6-30 19-53 40-74 20-21 45-34 75-40 12-2 40-2 52 0 20 4 38 12 54 23 12 7 17 12 161 154 64 64 100 100 104 106 32 41 30 99-3 139-16 18-39 32-62 37-9 2-31 3-39 2z"/>
<glyph glyph-name="books" unicode="&#99;" d="M47 254l0-234 28 0 0 468-28 0z m89 230c-11-3-21-11-26-20-5-10-5 0-5-207 0-206 0-196 5-206 5-9 16-18 27-20 7-1 74-1 81 0 11 2 22 11 27 20 5 10 5 0 5 206 0 207 0 197-5 207-5 9-16 18-27 20-7 1-76 1-82 0z m86-12c7-3 12-7 15-14l3-6 0-390-3-4c-3-7-7-12-14-15l-5-3-80 0-6 3c-7 3-11 8-14 15l-2 4-1 192c0 137 0 194 1 198 2 10 9 18 19 21 5 2 9 2 44 2 37-1 39-1 43-3z m-70-65l0-9 52 0 0 19-52 0z m159 77c-11-3-21-11-26-20-5-10-5 0-5-207 0-206 0-196 5-206 5-9 16-18 27-20 7-1 74-1 81 0 11 2 22 11 27 20 5 10 5 0 5 206 0 207 0 197-5 207-5 9-16 18-27 20-7 1-76 1-82 0z m86-12c7-3 12-7 15-14l3-6 0-390-3-4c-3-7-7-12-14-15l-5-3-80 0-6 3c-7 3-11 8-14 15l-2 4-1 192c0 137 0 194 1 198 2 10 9 18 19 21 5 2 9 2 44 2 37-1 39-1 43-3z m-70-65l0-9 52 0 0 19-52 0z"/>
<glyph glyph-name="calender" unicode="&#100;" d="M148 507c-1-1-4-4-6-6l-2-3-1-52c0-50 0-51 2-55 3-6 7-9 14-9 7 0 11 3 14 9 2 4 2 5 2 55l0 52-3 3c-5 7-13 9-20 6z m182-1c-2-1-4-4-6-6l-2-4 0-51c0-48 0-51 2-55 5-11 22-11 27 0 2 3 2 8 2 55 0 51 0 51-2 55-3 4-9 8-14 8-1 0-4-1-7-2z m-292-46c-16-3-30-17-34-33-1-4-1-55-1-199l1-194 2-5c4-11 14-21 25-25 5-1 16-2 225-2 209 0 220 1 225 2 11 4 21 14 25 25l3 5 0 194c0 144 0 195-1 199-4 17-18 30-35 33-3 1-29 1-58 1l-52 0 0-32 53 0c39 0 54 0 56-1 5-3 5 10 5-198l0-190-3-3-3-3-430 0-3 3-3 3 0 190c0 208 0 195 6 198 1 1 13 1 40 1l37 0 0 32-37 0c-21 0-40-1-43-1z m143-15l0-16 130 0 0 32-130 0z m-50-129c-6-3-9-6-12-12-3-8-2-18 4-25 4-4 12-7 17-7 5 0 13 3 17 7 3 4 6 11 6 16 0 5-3 13-7 17-4 3-11 6-16 6-3 0-6-1-9-2z m76 0c-6-3-9-6-12-12-3-8-2-18 4-25 4-4 12-7 17-7 5 0 13 3 17 7 3 4 6 11 6 16 0 5-3 13-7 17-4 3-11 6-16 6-3 0-6-1-9-2z m76 0c-6-3-9-6-12-12-3-8-2-18 4-25 4-4 12-7 17-7 5 0 13 3 17 7 3 4 6 11 6 16 0 5-3 13-7 17-4 3-11 6-16 6-3 0-6-1-9-2z m77 0c-6-3-9-6-12-12-3-8-2-18 4-25 4-4 12-7 17-7 5 0 13 3 17 7 3 4 6 11 6 16 0 5-3 13-7 17-4 3-11 6-16 6-3 0-6-1-9-2z m-229-76c-6-3-9-6-12-12-3-8-2-18 4-25 4-4 12-7 17-7 5 0 13 3 17 7 3 4 6 11 6 16 0 5-3 13-7 17-4 3-11 6-16 6-3 0-6-1-9-2z m76 0c-6-3-9-6-12-12-3-8-2-18 4-25 4-4 12-7 17-7 5 0 13 3 17 7 3 4 6 11 6 16 0 5-3 13-7 17-4 3-11 6-16 6-3 0-6-1-9-2z m76 0c-6-3-9-6-12-12-3-8-2-18 4-25 4-4 12-7 17-7 5 0 13 3 17 7 3 4 6 11 6 16 0 5-3 13-7 17-4 3-11 6-16 6-3 0-6-1-9-2z m77 0c-6-3-9-6-12-12-3-8-2-18 4-25 4-4 12-7 17-7 5 0 13 3 17 7 3 4 6 11 6 16 0 5-3 13-7 17-4 3-11 6-16 6-3 0-6-1-9-2z m-229-76c-6-3-9-6-12-12-3-8-2-18 4-25 4-4 12-7 17-7 5 0 13 3 17 7 3 4 6 11 6 16 0 5-3 13-7 17-4 3-11 6-16 6-3 0-6-1-9-2z m76 0c-6-3-9-6-12-12-3-8-2-18 4-25 4-4 12-7 17-7 5 0 13 3 17 7 3 4 6 11 6 16 0 5-3 13-7 17-4 3-11 6-16 6-3 0-6-1-9-2z m76 0c-6-3-9-6-12-12-3-8-2-18 4-25 4-4 12-7 17-7 5 0 13 3 17 7 3 4 6 11 6 16 0 5-3 13-7 17-4 3-11 6-16 6-3 0-6-1-9-2z m77 0c-6-3-9-6-12-12-3-8-2-18 4-25 4-4 12-7 17-7 5 0 13 3 17 7 3 4 6 11 6 16 0 5-3 13-7 17-4 3-11 6-16 6-3 0-6-1-9-2z"/>
<glyph glyph-name="camera" unicode="&#101;" d="M164 461c-12-3-25-13-30-24-2-3-8-17-14-32-5-15-10-27-10-27-1 0-18-3-38-6-32-6-39-7-44-10-13-6-23-18-26-32-3-8-3-254 0-262 4-18 17-31 35-36 5-1 30-1 219-1 189 0 214 0 220 1 17 5 30 18 35 36 2 8 2 254 0 262-4 14-14 26-27 32-5 3-12 4-44 10-20 3-37 6-37 6-1 0-6 13-12 28-6 16-12 31-14 33-5 10-17 19-30 22-8 3-175 3-183 0z m178-31c2-1 5-3 6-4 1-1 8-19 17-39 8-21 15-37 15-38 0 0 21-3 46-7 47-8 47-8 51-14 3-3 3-3 3-129 0-126 0-126-3-129-1-1-3-3-4-4l-3-3-428 0-3 3c-1 1-3 3-4 4-2 3-2 3-2 129 0 126 0 126 2 129 4 6 4 6 51 14 25 4 46 7 46 7 1 1 7 17 16 38 8 20 15 38 16 39 5 5 3 5 92 5 68 0 84 0 86-1z m-100-80c-29-3-56-16-76-37-18-18-30-40-36-65-2-12-2-38 0-50 11-51 50-90 101-101 12-2 38-2 50 0 51 11 90 50 101 101 2 12 2 38 0 50-6 26-17 46-36 65-18 19-38 29-63 35-8 2-33 3-41 2z m37-34c18-5 32-13 45-26 13-13 21-28 26-46 2-9 2-33 0-42-5-19-13-33-26-47-20-19-45-29-72-28-25 2-46 11-64 29-28 28-35 69-20 105 13 30 41 52 74 57 9 1 28 0 37-2z"/>
<glyph glyph-name="clock" unicode="&#102;" d="M226 506c-26-3-55-11-78-22-103-49-159-159-140-272 18-102 100-185 203-203 23-5 55-6 77-3 57 8 106 32 146 72 20 21 35 41 48 67 38 77 34 170-11 242-14 24-41 54-62 70-37 28-79 44-124 49-15 2-44 2-59 0z m55-20c71-8 135-49 173-111 15-25 26-55 31-85 2-16 2-51 0-67-13-84-70-154-149-183-36-14-80-18-118-12-83 15-152 73-180 152-9 26-12 47-12 76 0 24 1 36 6 57 20 78 81 141 158 164 12 4 28 8 40 9 11 1 40 1 51 0z m-24-63c-1 0-1-43-1-94l0-94-126 0 0-21 147 0 0 210-10 0c-5 0-10 0-10-1z"/>
<glyph glyph-name="document" unicode="&#103;" d="M245 484c-13-5-22-18-22-31l0-5-24 0c-23-1-25-1-29-3-5-2-11-9-11-13l-1-3-22 0-22-1-4-3c-2-1-5-4-7-7l-2-4 0-186c0-203 0-189 6-196 6-7-5-6 133-7l124-1 11-3c12-3 15-3 22 0 6 4 13 14 14 24 1 5 20 79 50 189 31 115 41 153 41 157 0 5-1 9-5 12-3 4-7 6-17 9-5 1-10 3-13 3-2 1-7 2-9 2-17 3-56 9-59 11-3 1-9 1-24 1l-21 0-1 4c-2 4-6 10-11 12-4 2-6 2-29 3l-24 0 0 7c-1 11-8 22-19 27-6 3-19 4-25 2z m21-11c16-8 17-31 2-41-5-2-6-3-12-3-6 0-7 1-12 3-13 9-15 25-4 36 7 7 17 9 26 5z m-39-38c3-5 12-12 18-14 7-3 15-3 22 0 6 2 15 9 18 14l1 3 23 0c26 0 29-1 33-6 2-3 3-5 3-22l0-18-178 0 0 17c0 19 1 22 6 26 4 3 5 3 30 3l23 0z m-70-45l0-9 198 0 0 19 27 0 0-346-252 0 0 346 27 0z m277 1c19-3 36-6 37-7 0-1-10-39-23-87-13-47-26-97-30-110-3-14-6-25-7-25 0 0 0 52 0 116 0 83 0 117 1 117 1 0 11-2 22-4z m-291-44l0-5 226 0 0 10-226 0z m0-33c0-1 0-4 0-6l1-4 225 0 0 10-113 1c-95 0-112 0-113-1z m0-42l0-5 112 0 0 10-112 0z"/>
<glyph glyph-name="download" unicode="&#104;" d="M96 336l0-150 126 0 0 23-103 0 0 255 274 0 0-255-103 0 0-23 126 0 0 301-320 0z m149 0c-1 0-1-60-1-134l0-133-34 35-35 34-8-8-8-8 48-49 49-49 48 49 49 49-8 8-8 8-70-70 0 269-11 0c-6 0-11 0-11-1z"/>
<glyph glyph-name="groups" unicode="&#105;" d="M168 446c-33-6-62-28-76-58-7-14-9-24-10-39-1-21 3-36 11-52 7-15 19-28 32-37 3-3 7-6 7-6 1 0-3-2-8-4-46-16-85-52-106-96-11-23-18-52-18-75 0-7 0-8 3-11 2-3 4-4 7-4 4 0 6 1 8 3 2 3 3 4 4 18 2 25 7 43 17 63 23 46 64 77 115 88 9 2 13 2 32 2 24 0 33-1 53-8 48-16 87-55 103-103 4-13 7-26 8-42 1-9 2-15 3-17 3-5 12-5 16-1 3 4 4 10 2 25-4 38-18 72-41 101l-7 7 3 4c5 4 19 14 28 18 16 9 39 14 57 14 18 0 41-5 56-13 13-6 24-14 34-25l11-11 0 25-7 6c-14 12-32 22-46 26-8 3-8 3-3 6 16 10 29 28 34 47 2 9 2 32 0 41-11 41-52 67-94 59-30-5-54-27-63-57-2-7-2-10-2-23 0-12 0-16 2-22 6-19 18-36 32-45l5-3-5-2c-20-7-33-15-48-27-5-5-6-5-8-4-1 1-4 4-7 6-14 12-35 24-54 30l-10 4 6 3c8 5 22 20 28 27 23 35 24 78 3 113-5 10-18 24-28 31-22 16-52 23-79 18z m38-22c30-8 52-30 60-61 3-10 3-28 0-40-9-35-39-60-75-62-61-3-104 57-82 114 8 19 26 37 44 45 16 6 37 8 53 4z m221-44c12-3 20-8 29-17 7-6 10-10 12-16 18-37 1-78-39-92-8-3-29-2-38 1-10 4-17 8-26 16-10 11-15 21-18 36-1 9-1 10 0 20 2 6 3 12 6 18 8 16 25 30 43 34 8 2 22 2 31 0z"/>
<glyph glyph-name="home" unicode="&#106;" d="M29 340l0-17 454 0 0 35-454 0z m0-85l0-17 454 0 0 35-454 0z m0-85l0-17 454 0 0 35-454 0z"/>
<glyph glyph-name="invite-member" unicode="&#107;" d="M172 447c-14-2-31-9-44-17-9-6-23-20-29-29-31-47-18-112 29-143l6-5-9-3c-45-15-85-50-106-94-11-23-19-55-19-78 0-7 2-10 6-12 5-3 8-2 12 2 3 2 3 4 3 9 0 7 2 21 4 31 2 13 7 26 14 40 24 49 72 83 126 90 14 2 43 1 56-2 16-4 25-7 39-14 38-19 68-54 82-95 5-15 7-24 8-42 2-13 2-15 4-18 5-5 14-3 17 3 1 4 1 5 0 18-2 25-7 46-17 67-22 44-60 78-107 95l-9 4 7 4c15 10 29 28 37 45 6 15 7 23 7 41 0 13 0 17-2 25-5 20-15 37-30 50-14 13-31 23-49 26-10 2-27 3-36 2z m24-21c17-2 34-10 46-22 12-11 19-22 24-38 11-40-10-83-50-99-20-9-47-8-66 2-22 11-38 30-45 54-2 10-2 32 1 42 9 33 36 56 69 61 8 1 12 1 21 0z m216-54l-3-4 0-75-75 0-3-3c-4-3-5-7-3-11 3-7 4-7 45-7l36 0 0-37c0-30 0-37 2-39 1-4 4-5 9-5 3 0 5 1 7 3l3 3 0 75 37 0c37 0 38 1 41 3 5 3 5 11 0 16l-2 2-76 0 0 37c0 40 0 41-5 44-5 2-9 1-13-2z"/>
<glyph glyph-name="location" unicode="&#108;" d="M235 508c-36-4-72-19-99-41-26-21-46-50-58-81-8-18-13-47-13-67 0-20 5-49 13-73 19-60 57-120 131-207 19-23 26-30 33-34 5-2 7-3 14-3 14 0 19 4 46 37 90 107 131 178 142 250 2 15 2 44 0 58-14 87-82 151-169 161-11 1-29 1-40 0z m52-34c56-12 101-52 119-106 25-74-9-164-105-281-16-19-43-52-45-52-1-1-12 12-34 37-44 53-72 93-93 134-32 62-40 115-24 162 19 57 67 98 127 107 13 3 42 2 55-1z m-48-58c-49-8-83-53-78-102 2-22 10-40 26-56 13-14 27-22 45-27 12-4 35-4 47 0 17 4 32 13 44 26 18 18 27 40 27 65 0 19-4 34-13 50-8 13-25 29-39 36-17 8-40 12-59 8z m39-17c22-7 39-22 49-42 6-12 7-20 7-34 0-13-1-22-6-33-14-30-43-47-76-46-14 1-21 3-32 8-29 15-47 48-43 81 4 26 19 48 42 60 14 7 23 9 40 8 8 0 13 0 19-2z"/>
<glyph glyph-name="message" unicode="&#109;" d="M212 469c-17-4-30-18-34-35-2-4-2-12-2-32l0-27-67 0c-56 0-67 0-72-2-18-4-31-17-35-35-3-8-3-174 0-183 4-18 20-32 39-35l7-1 0-34c0-36 0-37 6-42 4-3 8-5 14-4 3 1 9 6 43 41l40 39 71 0c79 0 77 0 89 6 7 4 16 13 19 20 5 10 6 14 6 43l0 27 26 0 39-39c35-35 40-40 43-41 6-1 10 1 14 4 6 5 6 6 6 42l0 34 7 1c19 3 35 17 40 35 2 9 2 175 0 183-5 18-18 31-35 35-9 3-255 3-264 0z m261-33c1-1 3-3 4-4 3-3 3-4 3-89 0-85 0-86-3-89-4-6-6-7-21-7-15-1-17-1-21-7-2-3-2-5-3-27l0-23-27 27c-15 15-29 28-31 29-2 1-8 1-20 1l-18 0 0 43c0 46 0 49-6 59-3 7-12 16-19 20-11 6-13 6-60 6l-43 0 0 25c0 27 0 30 4 34 5 5-1 5 133 5 124-1 125-1 128-3z m-176-96c1-1 3-3 4-4 3-3 3-4 3-89 0-85 0-86-3-89-1-1-3-3-4-4-3-3-4-3-81-3-57 0-78-1-79-2-2 0-15-13-29-28l-27-27-1 23c0 22-1 24-3 27-4 6-6 6-21 7-15 0-17 1-21 7-2 3-2 4-3 86 0 46 0 85 1 87 0 4 4 9 9 11 2 1 25 1 127 1 124-1 125-1 128-3z"/>
<glyph glyph-name="trash" unicode="&#110;" d="M132 445l0-33-78 0 0-22 34 0 0-358 335 0 0 358 34 0 0 22-78 0 0 67-247 0z m224-11l0-22-201 0 0 45 201 0z m45-212l0-167-291 0 0 335 291 0z m-224 0l0-100 23 0 0 100 0 100-12 1-11 0z m67 0l0-100 23 0 0 201-23 0z m68 100c-1 0-1-45-1-100l0-100 23 0 0 201-11 0c-6 0-11 0-11-1z"/>
<glyph glyph-name="setings" unicode="&#111;" d="M244 503c-17-4-29-16-35-33-2-7-3-9-5-9-21-6-38-13-51-21l-7-4-7 4c-8 4-15 6-25 6-14 0-25-5-35-15-2-3-6-8-7-10-9-15-8-36 1-50 3-4 3-5 1-7-6-8-18-37-21-52-1-3-2-7-2-7-1 0-3-1-6-2-9-2-17-7-24-13-19-21-19-51 1-70 7-6 14-10 23-13 3 0 5-1 6-1 0 0 1-4 1-8 3-11 9-25 16-40l8-14-3-4c-9-14-9-36-1-50 1-3 5-7 7-10 10-10 21-15 35-15 10 0 17 2 25 6l7 4 7-5c14-8 34-16 50-20 3 0 3-1 6-9 7-21 26-35 47-35 21 0 40 14 47 35l3 8 9 3c15 4 36 13 48 21l3 2 7-4c8-4 15-6 25-6 14 0 25 5 35 15 2 3 6 7 7 10 9 14 8 36-1 50l-3 4 8 14c7 15 13 29 16 40 1 4 1 8 2 8 0 0 2 1 5 1 9 3 16 7 23 13 20 20 20 51 0 71-8 7-15 11-26 13-2 1-3 2-3 5-3 11-12 35-20 50l-5 7 3 5c9 14 10 36 1 50-1 2-5 7-7 10-10 10-21 15-35 15-10 0-17-2-25-6l-7-4-6 4c-14 8-35 17-51 21-3 0-3 1-6 8-1 5-4 11-6 14-11 17-33 26-53 20z m24-26c9-6 13-14 13-28 0-8 0-8 2-8 2-1 6-2 11-3 11-2 29-8 39-12 10-5 25-14 31-18l5-4 6 7c9 7 14 10 22 10 11 0 20-7 23-17 2-7 2-8 0-15-1-4-3-7-8-13l-8-8 4-4c5-7 14-22 18-33 7-14 11-29 14-47l1-4 10 0c13 0 17-2 23-8 8-10 8-23 0-33-6-6-10-8-23-8-5 0-10 0-10 0 0-1-1-6-2-12-4-22-15-47-27-66-4-5-7-9-7-10-1 0 2-4 6-8 6-6 8-9 9-13 2-7 2-8 0-15-3-10-12-17-23-17-8 0-13 2-22 10-4 4-7 7-7 6-2-2-19-13-30-18-13-7-31-13-44-15-5-1-9-2-11-3-2 0-2-1-2-8 0-15-4-22-13-28-4-2-6-3-12-3-6 0-8 1-12 3-9 6-13 13-13 28 0 7 0 8-2 8-1 1-6 2-11 3-23 4-51 16-70 30l-5 4-7-7c-7-7-13-10-21-10-11 0-20 7-23 17-2 7-2 8 0 15 1 4 3 7 8 13l8 7-4 5c-16 21-27 49-32 80l-1 4-10 0c-13 0-17 2-23 8-8 10-8 23 0 33 6 6 10 8 23 8 5 0 10 0 10 0 0 1 1 6 2 12 5 23 14 47 28 66 3 6 6 10 6 11 0 0-3 4-7 8-5 5-7 8-8 12-2 7-2 8 0 15 3 10 12 17 23 17 8 0 13-3 22-10l7-7 4 4c6 4 21 13 31 18 10 4 29 10 39 12 5 1 10 2 11 2 2 1 2 2 2 11 1 12 3 18 9 23 8 7 20 8 28 3z m-24-148c-15-3-24-7-34-14-20-16-31-43-28-69 3-20 13-38 28-50 13-10 30-15 46-15 38 0 69 28 74 66 4 30-13 61-40 75-11 6-17 7-31 8-8 0-14 0-15-1z m24-25c8-2 15-6 22-13 17-16 21-41 9-61-5-7-14-16-22-20-7-3-9-3-17-4-17-1-27 3-39 15-8 8-12 16-14 27-3 19 6 38 22 49 4 3 12 6 16 7 5 1 19 1 23 0z"/>
<glyph glyph-name="rotate-clockwise" unicode="&#112;" d="M254 505c-65-2-126-29-172-75-41-42-64-93-70-153-2-19-2-28 0-45 5-45 17-81 41-116 39-58 99-97 170-109 13-2 50-3 64-1 58 6 110 31 152 73 44 44 72 108 72 168l1 12-3 3c-4 3-9 3-12 0-3-3-4-6-4-23-2-34-13-71-32-102-38-64-104-106-178-113-16-2-42-1-57 1-101 16-179 95-195 196-2 16-2 52 0 68 7 40 22 76 47 108 8 10 29 31 39 39 32 26 67 41 107 48 15 3 44 4 59 2 45-4 88-21 122-49 8-6 29-26 29-27 0-1-18-1-39-1l-40 0-3-3c-4-3-4-9 0-13l2-2 52 0c57 0 55 0 57 7 1 2 1 21 1 51 0 52 0 53-6 55-4 2-7 1-10-2l-3-3 0-73-11 10c-49 47-113 71-180 69z"/>
<glyph glyph-name="rotate-anti-clockwise" unicode="&#113;" d="M59 504c-6-2-6-3-6-55 0-30 0-49 1-51 2-7 0-7 57-7l52 0 3 2c3 4 3 10-1 13l-3 3-40 0c-21 0-39 0-39 1 0 1 21 21 29 27 34 28 77 45 122 49 16 2 44 1 60-2 39-7 74-22 106-48 10-8 31-29 39-39 25-32 41-68 47-108 2-16 2-52 0-68-16-101-94-180-195-196-15-2-41-3-57-1-73 7-140 49-178 113-18 31-30 68-32 102 0 17-1 20-4 23-3 3-8 3-12 0l-2-3 0-12c0-60 28-124 73-168 41-42 94-67 151-73 14-2 51-1 64 1 53 9 98 32 136 68 34 34 58 74 69 120 3 14 5 21 7 37 1 17 1 26 0 45-7 62-32 114-75 157-41 39-91 63-148 70-13 2-44 1-58-1-54-7-103-30-142-67l-11-10 0 73-2 3c-3 3-7 4-11 2z"/>
<glyph glyph-name="profile" unicode="&#114;" d="M241 484c-54-7-99-50-107-103-2-11-2-31-1-41 5-25 17-49 35-67 6-6 18-16 23-18 1-1 2-1 2-2 0 0-3-2-6-3-11-3-32-12-43-19-32-19-59-46-77-76-18-28-29-61-32-93-2-24-1-30 7-33 4-3 9-2 13 2 4 3 4 4 5 22 3 48 22 89 55 123 28 29 63 48 104 57 12 2 15 2 37 2 22 0 25 0 37-2 53-11 98-41 127-85 19-30 30-60 32-98 2-14 2-16 4-18 5-6 13-6 18-1 4 4 5 8 3 25-5 69-41 130-99 169-13 8-36 20-49 24-6 2-11 4-11 4 0 0 3 2 7 4 9 6 27 24 34 35 22 33 27 72 14 111-3 8-9 19-15 28-5 8-24 27-33 33-26 16-56 23-84 20z m39-28c18-4 33-13 46-26 13-13 21-27 26-46 3-12 3-34 0-47-9-34-33-60-67-71-10-3-11-3-28-3-16-1-19 0-26 2-34 10-59 33-69 65-12 37-2 77 27 103 24 23 58 32 91 23z"/>
<glyph glyph-name="notification" unicode="&#115;" d="M246 510c-16-6-26-24-21-39 2-4 2-4-1-5-11-2-20-5-28-8-53-20-95-68-107-125-4-17-4-29-4-129l0-97-18 0-18-1-3-3c-5-5-4-13 3-17 3-1 12-1 62-1l60 0 0-8c1-11 3-18 9-30 11-21 29-36 53-44 8-2 10-2 23-2 13 0 16 0 24 2 23 7 41 22 52 43 5 10 9 25 9 34l0 5 59 0c64 0 64 0 67 5 3 4 3 9-1 13l-3 3-18 1-18 0 0 97c0 59 0 101-1 108-3 40-19 76-47 104-25 26-53 42-91 50l-3 1 2 4c3 10 0 24-8 31-9 9-23 12-33 8z m15-21c4-2 6-7 6-11-2-5-6-8-11-8-5 0-9 3-10 8-1 4 1 9 5 11 4 2 5 2 10 0z m25-44c29-6 54-20 75-41 21-21 33-43 41-73l2-11 1-106 0-107-298 0 0 107c1 118 0 109 8 132 8 24 20 44 39 61 23 22 52 36 84 40 11 1 36 0 48-2z m34-366c-3-27-22-49-48-56-8-2-23-2-32 0-17 5-33 18-41 33-3 7-7 20-7 26l0 3 128 0z"/>
</font></defs></svg>
